module coverart

go 1.20

require (
	github.com/davecgh/go-spew v1.1.1
	github.com/fvbock/endless v0.0.0-20170109170031-447134032cb6
	github.com/gin-contrib/expvar v0.0.1
	github.com/gin-gonic/gin v1.9.0
	github.com/go-playground/validator/v10 v10.14.0 // indirect
	github.com/influxdata/influxdb1-client v0.0.0-20220302092344-a9ab5670611c
	github.com/json-iterator/go v1.1.12 // indirect
	github.com/sirupsen/logrus v1.9.2
	github.com/stretchr/objx v0.5.0 // indirect
	github.com/stretchr/testify v1.8.2
	github.com/thedevsaddam/gojsonq v2.3.0+incompatible
	golang.org/x/sys v0.8.0 // indirect
	google.golang.org/protobuf v1.30.0 // indirect
	gopkg.in/yaml.v2 v2.4.0
)

require (
	github.com/bytedance/sonic v1.8.9 // indirect
	github.com/chenzhuoyu/base64x v0.0.0-20221115062448-fe3a3abad311 // indirect
	github.com/gabriel-vasile/mimetype v1.4.2 // indirect
	github.com/gin-contrib/sse v0.1.0 // indirect
	github.com/go-playground/locales v0.14.1 // indirect
	github.com/go-playground/universal-translator v0.18.1 // indirect
	github.com/goccy/go-json v0.10.2 // indirect
	github.com/klauspost/cpuid/v2 v2.2.4 // indirect
	github.com/leodido/go-urn v1.2.4 // indirect
	github.com/mattn/go-isatty v0.0.19 // indirect
	github.com/modern-go/concurrent v0.0.0-20180306012644-bacd9c7ef1dd // indirect
	github.com/modern-go/reflect2 v1.0.2 // indirect
	github.com/pelletier/go-toml/v2 v2.0.7 // indirect
	github.com/pmezard/go-difflib v1.0.0 // indirect
	github.com/twitchyliquid64/golang-asm v0.15.1 // indirect
	github.com/ugorji/go/codec v1.2.11 // indirect
	golang.org/x/arch v0.3.0 // indirect
	golang.org/x/crypto v0.9.0 // indirect
	golang.org/x/net v0.10.0 // indirect
	golang.org/x/text v0.9.0 // indirect
	gopkg.in/yaml.v3 v3.0.1 // indirect
)
